^C:\USERS\TIMOH\SOURCE\REPOS\CPP_8TH\CPP_8\CPP_8\CPP_8.CPP
C:\USERS\TIMOH\SOURCE\REPOS\CPP_8TH\CPP_8\CPP_8\DEBUG\VC142.PDB
C:\USERS\TIMOH\SOURCE\REPOS\CPP_8TH\CPP_8\CPP_8\DEBUG\VC142.IDB
C:\USERS\TIMOH\SOURCE\REPOS\CPP_8TH\CPP_8\CPP_8\DEBUG\CPP_8.OBJ
